[
  {
    "id": 23,
    "name": "A"
  },
  {
    "id": 24,
    "name": "B"
  },
  {
    "id": 25,
    "name": "C"
  },
  {
    "id": 26,
    "name": "D"
  },
  {
    "id": 27,
    "name": "E"
  },
  {
    "id": 28,
    "name": "F"
  },
  {
    "id": 29,
    "name": "G"
  },
  {
    "id": 30,
    "name": "H"
  },
  {
    "id": 31,
    "name": "I"
  },
  {
    "id": 32,
    "name": "J"
  },
  {
    "id": 33,
    "name": "A"
  },
  {
    "id": 34,
    "name": "B"
  },
  {
    "id": 35,
    "name": "C"
  },
  {
    "id": 36,
    "name": "D"
  },
  {
    "id": 37,
    "name": "E"
  },
  {
    "id": 38,
    "name": "F"
  },
  {
    "id": 39,
    "name": "G"
  },
  {
    "id": 40,
    "name": "H"
  },
  {
    "id": 41,
    "name": "I"
  },
  {
    "id": 42,
    "name": "J"
  },
  {
    "id": 0,
    "name": "A"
  },
  {
    "id": 1,
    "name": "B"
  },
  {
    "id": 2,
    "name": "C"
  },
  {
    "id": 3,
    "name": "D"
  },
  {
    "id": 4,
    "name": "E"
  },
  {
    "id": 5,
    "name": "F"
  },
  {
    "id": 6,
    "name": "G"
  },
  {
    "id": 7,
    "name": "H"
  },
  {
    "id": 8,
    "name": "I"
  },
  {
    "id": 9,
    "name": "J"
  }
]